<mxfile host="app.diagrams.net" modified="2021-02-09T10:40:36.266Z" agent="5.0 (Windows NT 10.0; Win64; x64) AppleWebKit/537.36 (KHTML, like Gecko) Chrome/88.0.4324.146 Safari/537.36" etag="sHCu7RxmbiTzySQOR7kJ" version="14.2.9" type="gitlab">
  <diagram id="0PliFoOG1bPxS2GIYF0Z" name="Page-1">
    <mxGraphModel dx="1730" dy="1055" grid="1" gridSize="10" guides="1" tooltips="1" connect="1" arrows="1" fold="1" page="1" pageScale="1" pageWidth="850" pageHeight="1100" math="0" shadow="0">
      <root>
        <mxCell id="0" />
        <mxCell id="1" parent="0" />
        <mxCell id="MdHRSIgFLGrgBRVB7emb-29" value="" style="rounded=0;whiteSpace=wrap;html=1;dashed=1;dashPattern=1 4;fontSize=12;fillColor=#f5f5f5;strokeColor=#666666;fontColor=#333333;" vertex="1" parent="1">
          <mxGeometry x="76" y="240" width="730" height="490" as="geometry" />
        </mxCell>
        <mxCell id="MdHRSIgFLGrgBRVB7emb-1" value="Server09-Docs IP : 157.90.122.124" style="swimlane;" vertex="1" parent="1">
          <mxGeometry x="31" y="70" width="790" height="680" as="geometry" />
        </mxCell>
        <mxCell id="MdHRSIgFLGrgBRVB7emb-2" value="bookstack_mmp" style="swimlane;" vertex="1" parent="MdHRSIgFLGrgBRVB7emb-1">
          <mxGeometry x="520" y="290" width="115" height="90" as="geometry" />
        </mxCell>
        <mxCell id="MdHRSIgFLGrgBRVB7emb-23" value="IP: 172.28.0.11" style="text;html=1;align=center;verticalAlign=middle;resizable=0;points=[];autosize=1;fontSize=12;" vertex="1" parent="MdHRSIgFLGrgBRVB7emb-2">
          <mxGeometry x="7.5" y="46" width="100" height="20" as="geometry" />
        </mxCell>
        <mxCell id="MdHRSIgFLGrgBRVB7emb-3" value="bookstack_db" style="swimlane;" vertex="1" parent="MdHRSIgFLGrgBRVB7emb-1">
          <mxGeometry x="650" y="420" width="100" height="210" as="geometry" />
        </mxCell>
        <mxCell id="MdHRSIgFLGrgBRVB7emb-27" value="IP: 172.28.0.10" style="text;html=1;align=center;verticalAlign=middle;resizable=0;points=[];autosize=1;fontSize=12;" vertex="1" parent="MdHRSIgFLGrgBRVB7emb-3">
          <mxGeometry y="30" width="100" height="20" as="geometry" />
        </mxCell>
        <mxCell id="MdHRSIgFLGrgBRVB7emb-4" value="docs_mkdocs_1" style="swimlane;" vertex="1" parent="MdHRSIgFLGrgBRVB7emb-1">
          <mxGeometry x="650" y="290" width="100" height="90" as="geometry" />
        </mxCell>
        <mxCell id="MdHRSIgFLGrgBRVB7emb-7" style="edgeStyle=orthogonalEdgeStyle;rounded=0;orthogonalLoop=1;jettySize=auto;html=1;exitX=0;exitY=1;exitDx=0;exitDy=0;entryX=0.5;entryY=0;entryDx=0;entryDy=0;" edge="1" parent="MdHRSIgFLGrgBRVB7emb-1" source="MdHRSIgFLGrgBRVB7emb-5" target="MdHRSIgFLGrgBRVB7emb-2">
          <mxGeometry relative="1" as="geometry">
            <Array as="points">
              <mxPoint x="631" y="270" />
              <mxPoint x="577" y="270" />
            </Array>
          </mxGeometry>
        </mxCell>
        <mxCell id="MdHRSIgFLGrgBRVB7emb-9" style="edgeStyle=orthogonalEdgeStyle;rounded=0;orthogonalLoop=1;jettySize=auto;html=1;exitX=1;exitY=1;exitDx=0;exitDy=0;" edge="1" parent="MdHRSIgFLGrgBRVB7emb-1" source="MdHRSIgFLGrgBRVB7emb-5" target="MdHRSIgFLGrgBRVB7emb-4">
          <mxGeometry relative="1" as="geometry" />
        </mxCell>
        <mxCell id="MdHRSIgFLGrgBRVB7emb-5" value="" style="shape=image;html=1;verticalAlign=top;verticalLabelPosition=bottom;labelBackgroundColor=#ffffff;imageAspect=0;aspect=fixed;image=https://cdn4.iconfinder.com/data/icons/logos-brands-5/24/nginx-128.png" vertex="1" parent="MdHRSIgFLGrgBRVB7emb-1">
          <mxGeometry x="631" y="40" width="70" height="70" as="geometry" />
        </mxCell>
        <mxCell id="MdHRSIgFLGrgBRVB7emb-6" value="Nginx Running on Port 80 and 443" style="text;html=1;align=center;verticalAlign=middle;resizable=0;points=[];autosize=1;fontStyle=1" vertex="1" parent="MdHRSIgFLGrgBRVB7emb-1">
          <mxGeometry x="410" y="65" width="210" height="20" as="geometry" />
        </mxCell>
        <mxCell id="MdHRSIgFLGrgBRVB7emb-13" style="edgeStyle=orthogonalEdgeStyle;rounded=0;orthogonalLoop=1;jettySize=auto;html=1;entryX=0.5;entryY=0;entryDx=0;entryDy=0;exitX=0;exitY=1;exitDx=0;exitDy=0;dashed=1;dashPattern=1 4;" edge="1" target="MdHRSIgFLGrgBRVB7emb-14" parent="MdHRSIgFLGrgBRVB7emb-1" source="MdHRSIgFLGrgBRVB7emb-5">
          <mxGeometry relative="1" as="geometry">
            <mxPoint x="580" y="200" as="sourcePoint" />
            <Array as="points">
              <mxPoint x="631" y="270" />
              <mxPoint x="445" y="270" />
            </Array>
          </mxGeometry>
        </mxCell>
        <mxCell id="MdHRSIgFLGrgBRVB7emb-14" value="bookstack_2" style="swimlane;dashed=1;dashPattern=1 4;" vertex="1" parent="MdHRSIgFLGrgBRVB7emb-1">
          <mxGeometry x="388" y="290" width="115" height="90" as="geometry">
            <mxRectangle x="388" y="290" width="110" height="23" as="alternateBounds" />
          </mxGeometry>
        </mxCell>
        <mxCell id="MdHRSIgFLGrgBRVB7emb-24" value="IP: 172.28.0.12" style="text;html=1;align=center;verticalAlign=middle;resizable=0;points=[];autosize=1;fontSize=12;" vertex="1" parent="MdHRSIgFLGrgBRVB7emb-14">
          <mxGeometry x="7.5" y="46" width="100" height="20" as="geometry" />
        </mxCell>
        <mxCell id="MdHRSIgFLGrgBRVB7emb-16" value="bookstack_3" style="swimlane;dashed=1;dashPattern=1 4;" vertex="1" parent="MdHRSIgFLGrgBRVB7emb-1">
          <mxGeometry x="252" y="290" width="115" height="90" as="geometry" />
        </mxCell>
        <mxCell id="MdHRSIgFLGrgBRVB7emb-25" value="IP: 172.28.0.13" style="text;html=1;align=center;verticalAlign=middle;resizable=0;points=[];autosize=1;fontSize=12;" vertex="1" parent="MdHRSIgFLGrgBRVB7emb-16">
          <mxGeometry x="7.5" y="46" width="100" height="20" as="geometry" />
        </mxCell>
        <mxCell id="MdHRSIgFLGrgBRVB7emb-17" style="edgeStyle=orthogonalEdgeStyle;rounded=0;orthogonalLoop=1;jettySize=auto;html=1;entryX=0.5;entryY=0;entryDx=0;entryDy=0;exitX=0;exitY=1;exitDx=0;exitDy=0;dashed=1;dashPattern=1 4;" edge="1" target="MdHRSIgFLGrgBRVB7emb-16" parent="MdHRSIgFLGrgBRVB7emb-1" source="MdHRSIgFLGrgBRVB7emb-5">
          <mxGeometry relative="1" as="geometry">
            <mxPoint x="535" y="181" as="sourcePoint" />
            <Array as="points">
              <mxPoint x="631" y="270" />
              <mxPoint x="309" y="270" />
            </Array>
          </mxGeometry>
        </mxCell>
        <mxCell id="MdHRSIgFLGrgBRVB7emb-19" value="bookstack_4" style="swimlane;fontSize=12;verticalAlign=middle;dashed=1;dashPattern=1 4;" vertex="1" parent="MdHRSIgFLGrgBRVB7emb-1">
          <mxGeometry x="122" y="290" width="115" height="90" as="geometry" />
        </mxCell>
        <mxCell id="MdHRSIgFLGrgBRVB7emb-26" value="IP: 172.28.0.14" style="text;html=1;align=center;verticalAlign=middle;resizable=0;points=[];autosize=1;fontSize=12;" vertex="1" parent="MdHRSIgFLGrgBRVB7emb-19">
          <mxGeometry x="7.5" y="46" width="100" height="20" as="geometry" />
        </mxCell>
        <mxCell id="MdHRSIgFLGrgBRVB7emb-21" style="edgeStyle=orthogonalEdgeStyle;rounded=0;orthogonalLoop=1;jettySize=auto;html=1;entryX=0.5;entryY=0;entryDx=0;entryDy=0;fontSize=12;verticalAlign=middle;dashed=1;dashPattern=1 4;exitX=0;exitY=1;exitDx=0;exitDy=0;" edge="1" target="MdHRSIgFLGrgBRVB7emb-19" parent="MdHRSIgFLGrgBRVB7emb-1" source="MdHRSIgFLGrgBRVB7emb-5">
          <mxGeometry relative="1" as="geometry">
            <mxPoint x="560" y="180" as="sourcePoint" />
            <Array as="points">
              <mxPoint x="631" y="270" />
              <mxPoint x="179" y="270" />
            </Array>
          </mxGeometry>
        </mxCell>
        <mxCell id="MdHRSIgFLGrgBRVB7emb-22" value="IP: 172.28.0.2" style="text;html=1;align=center;verticalAlign=middle;resizable=0;points=[];autosize=1;fontSize=12;" vertex="1" parent="1">
          <mxGeometry x="695" y="406" width="90" height="20" as="geometry" />
        </mxCell>
        <mxCell id="MdHRSIgFLGrgBRVB7emb-30" value="Docker version 20.10.3, build 48d30b5" style="text;html=1;align=center;verticalAlign=middle;resizable=0;points=[];autosize=1;fontSize=15;labelPosition=center;verticalLabelPosition=middle;fontStyle=1" vertex="1" parent="1">
          <mxGeometry x="81" y="244" width="290" height="20" as="geometry" />
        </mxCell>
        <mxCell id="MdHRSIgFLGrgBRVB7emb-32" value="MMP db" style="rounded=0;whiteSpace=wrap;html=1;fontSize=15;" vertex="1" parent="1">
          <mxGeometry x="685" y="547" width="90" height="30" as="geometry" />
        </mxCell>
        <mxCell id="MdHRSIgFLGrgBRVB7emb-33" value="db 2" style="rounded=0;whiteSpace=wrap;html=1;dashed=1;dashPattern=1 4;fontSize=15;" vertex="1" parent="1">
          <mxGeometry x="685" y="583" width="90" height="30" as="geometry" />
        </mxCell>
        <mxCell id="MdHRSIgFLGrgBRVB7emb-34" value="db4" style="rounded=0;whiteSpace=wrap;html=1;dashed=1;dashPattern=1 4;fontSize=15;" vertex="1" parent="1">
          <mxGeometry x="685" y="656" width="90" height="30" as="geometry" />
        </mxCell>
        <mxCell id="MdHRSIgFLGrgBRVB7emb-35" value="db3" style="rounded=0;whiteSpace=wrap;html=1;dashed=1;dashPattern=1 4;fontSize=15;" vertex="1" parent="1">
          <mxGeometry x="685" y="620" width="90" height="30" as="geometry" />
        </mxCell>
        <mxCell id="MdHRSIgFLGrgBRVB7emb-20" style="edgeStyle=orthogonalEdgeStyle;rounded=0;orthogonalLoop=1;jettySize=auto;html=1;exitX=0.5;exitY=1;exitDx=0;exitDy=0;fontSize=12;verticalAlign=middle;dashed=1;dashPattern=1 4;entryX=0;entryY=0.5;entryDx=0;entryDy=0;" edge="1" source="MdHRSIgFLGrgBRVB7emb-19" parent="1" target="MdHRSIgFLGrgBRVB7emb-34">
          <mxGeometry relative="1" as="geometry">
            <mxPoint x="681" y="490" as="targetPoint" />
            <Array as="points">
              <mxPoint x="211" y="671" />
            </Array>
          </mxGeometry>
        </mxCell>
        <mxCell id="MdHRSIgFLGrgBRVB7emb-18" style="edgeStyle=orthogonalEdgeStyle;rounded=0;orthogonalLoop=1;jettySize=auto;html=1;exitX=0.5;exitY=1;exitDx=0;exitDy=0;entryX=0;entryY=0.5;entryDx=0;entryDy=0;dashed=1;dashPattern=1 4;" edge="1" source="MdHRSIgFLGrgBRVB7emb-16" parent="1" target="MdHRSIgFLGrgBRVB7emb-35">
          <mxGeometry relative="1" as="geometry">
            <mxPoint x="585" y="561" as="targetPoint" />
          </mxGeometry>
        </mxCell>
        <mxCell id="MdHRSIgFLGrgBRVB7emb-15" style="edgeStyle=orthogonalEdgeStyle;rounded=0;orthogonalLoop=1;jettySize=auto;html=1;exitX=0.5;exitY=1;exitDx=0;exitDy=0;entryX=0;entryY=0.5;entryDx=0;entryDy=0;dashed=1;dashPattern=1 4;" edge="1" parent="1" source="MdHRSIgFLGrgBRVB7emb-14" target="MdHRSIgFLGrgBRVB7emb-33">
          <mxGeometry relative="1" as="geometry">
            <mxPoint x="651" y="490" as="targetPoint" />
          </mxGeometry>
        </mxCell>
        <mxCell id="MdHRSIgFLGrgBRVB7emb-12" style="edgeStyle=orthogonalEdgeStyle;rounded=0;orthogonalLoop=1;jettySize=auto;html=1;exitX=0.5;exitY=1;exitDx=0;exitDy=0;entryX=0;entryY=0.5;entryDx=0;entryDy=0;" edge="1" parent="1" source="MdHRSIgFLGrgBRVB7emb-2" target="MdHRSIgFLGrgBRVB7emb-32">
          <mxGeometry relative="1" as="geometry" />
        </mxCell>
      </root>
    </mxGraphModel>
  </diagram>
</mxfile>
